{
  "success": true,
  "message": "any",
  "paginate": {
    "current_page": 1,
    "data": [
      {
        "description": "Escala Likert",
        "html": {
          "content_choice_id": 1,
          "content_html_tag_id": 2,
          "category": "form",
          "tag": "radio",
          "label": "Type your Text",
          "choices": [
            {
              "id": 1,
              "content_choice_id": 1,
              "text": "Discordo Totalmente",
              "value": "1",
              "position": 1
            },
            {
              "id": 2,
              "content_choice_id": 1,
              "text": "Discordo",
              "value": "2",
              "position": 2
            },
            {
              "id": 3,
              "content_choice_id": 1,
              "text": "Discordo Totalmente e Nem Discordo",
              "value": "3",
              "position": 3
            },
            {
              "id": 4,
              "content_choice_id": 1,
              "text": "Concordo",
              "value": "4",
              "position": 4
            },
            {
              "id": 5,
              "content_choice_id": 1,
              "text": "Concordo Totalmente",
              "value": "5",
              "position": 5
            },
            {
              "id": 6,
              "content_choice_id": 1,
              "text": "NA (Não Aplicável)",
              "value": "0",
              "position": 6
            }
          ]
        }
      },
      {
        "description": "Bass Players",
        "html": {
          "content_choice_id": 2,
          "content_html_tag_id": 2,
          "category": "form",
          "tag": "radio",
          "label": "Type your Text",
          "choices": [
            {
              "id": 7,
              "content_choice_id": 2,
              "text": "Les Claypool",
              "value": "1",
              "position": 1
            },
            {
              "id": 8,
              "content_choice_id": 2,
              "text": "Geddy Lee",
              "value": "2",
              "position": 2
            }
          ]
        }
      }
    ],
    "first_page_url": "http://127.0.0.1:8000/api/contents_choices?page=1",
    "from": 1,
    "last_page": 2,
    "last_page_url": "http://127.0.0.1:8000/api/contents_choices?page=2",
    "next_page_url": "http://127.0.0.1:8000/api/contents_choices?page=2",
    "path": "http://127.0.0.1:8000/api/contents_choices",
    "per_page": 100000000000000000,
    "prev_page_url": null,
    "to": 2,
    "total": 3
  }
}
